module gitlab.com/frbgd/go4th

go 1.14

require (
	github.com/gabriel-vasile/mimetype v0.0.0-20181202175247-077d38b2e891
	github.com/google/uuid v1.1.0
	github.com/k0kubun/colorstring v0.0.0-20150214042306-9440f1994b88 // indirect
	github.com/k0kubun/pp v2.3.0+incompatible
	github.com/mattn/go-colorable v0.0.9 // indirect
	github.com/mattn/go-isatty v0.0.4 // indirect
	golang.org/x/sys v0.0.0-20190124100055-b90733256f2e // indirect
	gopkg.in/oleiade/reflections.v1 v1.0.0
)
